[
  {
    "command": "help",
    "accelerator": null
  },
  {
    "command": "historyBackward",
    "accelerator": "Alt+Left"
  },
  {
    "command": "historyForward",
    "accelerator": "Alt+Right"
  },
  {
    "command": "editor.richMarkdown.clickAtCursor",
    "accelerator": "Ctrl+Enter"
  },
  {
    "command": "convertTextToNewNote",
    "accelerator": "Ctrl+Alt+N"
  },
  {
    "command": "createNoteFromTemplate",
    "accelerator": "Alt+Ctrl+Shift+N"
  },
  {
    "command": "createNoteFromDefaultTemplate",
    "accelerator": "Alt+Shift+N"
  },
  {
    "command": "createTodoFromTemplate",
    "accelerator": "Alt+Ctrl+Shift+T"
  },
  {
    "command": "createTodoFromDefaultTemplate",
    "accelerator": "Alt+Shift+T"
  },
  {
    "command": "insertTemplate",
    "accelerator": "Alt+Ctrl+I"
  },
  {
    "command": "richMarkdown.inlineImages",
    "accelerator": null
  },
  {
    "command": "copyFolderID",
    "accelerator": null
  }
]